Lab #5
…
Create a data frame containing the most dangerous vehicle make in each state. The number of persons fatally hit in the vehicle make is used to assess the (non-)safety of a make. Make sure to handle the missing values appropriately. (look up variable MAKE)

dangerous <- per_fatal %>% 
  filter(!is.na(MAKE)) %>%
  group_by(STATE, MAKE) %>%
  summarise(acc_count = n()) %>%
  group_by(STATE) %>% filter(acc_count == max(acc_count))

## `summarise()` regrouping output by 'STATE' (override with `.groups` argument)

dangerous

## # A tibble: 54 x 3
## # Groups:   STATE [51]
##    STATE  MAKE acc_count
##    <int> <int>     <int>
##  1     1    12       138
##  2     2    12         9
##  3     4    20        88
##  4     5    20        88
##  5     6    49       351
##  6     8    12        63
##  7     8    37        63
##  8     9    37        28
##  9    10    37        12
## 10    11    37         5
## # ... with 44 more rows
…
Tally the number of accidents by day of the week (DAY_WEEK), hour of the day (HOUR) and gender (SEX). Visualize the results.

tally <- big_table %>% group_by(DAY_WEEK, HOUR, SEX) %>%
  summarise(n=n()) %>%
  arrange(DAY_WEEK)

## `summarise()` regrouping output by 'DAY_WEEK', 'HOUR' (override with `.groups` argument)

tally

## # A tibble: 700 x 4
## # Groups:   DAY_WEEK, HOUR [175]
##    DAY_WEEK  HOUR   SEX      n
##    <fct>    <int> <int>  <int>
##  1 Sunday       0     1 817314
##  2 Sunday       0     2 408921
##  3 Sunday       0     8   3760
##  4 Sunday       0     9  19626
##  5 Sunday       1     1 776970
##  6 Sunday       1     2 390056
##  7 Sunday       1     8   2996
##  8 Sunday       1     9  18507
##  9 Sunday       2     1 924705
## 10 Sunday       2     2 462916
## # ... with 690 more rows
…
